Region,LGA,2014-15,2015-16,2016-17,2017-18,2018-19
North West Metro,Banyule,1342,1317,1303,1395,1298
North West Metro,Brimbank,2480,2725,2246,2565,2828
North West Metro,Darebin,1605,1646,1645,1689,1798
North West Metro,Hobsons Bay,1057,1146,1016,971,1065
North West Metro,Hume,3013,3096,3040,3375,3813
North West Metro,Maribyrnong,835,929,782,797,929
North West Metro,Melbourne,1280,1464,1452,1687,1583
North West Metro,Melton,1942,2110,2104,2064,2362
North West Metro,Moonee Valley,1035,1097,1054,1062,1170
North West Metro,Moreland,1662,1860,1798,1815,2069
North West Metro,Nillumbik,426,390,468,374,455
North West Metro,Whittlesea,2755,2867,3057,3189,3164
North West Metro,Wyndham,2473,3014,2717,2742,3269
North West Metro,Yarra,781,972,974,950,1054
North West Metro,Total,22686,24633,23656,24675,26857
Eastern,Alpine,72,105,94,106,139
Eastern,Bass Coast,557,643,529,513,558
Eastern,Baw Baw,666,740,683,837,844
Eastern,Benalla,280,377,371,337,304
Eastern,Boroondara,640,837,813,810,851
Eastern,East Gippsland,1061,1019,924,1260,1639
Eastern,Greater Shepparton,1366,1479,1392,1463,1704
Eastern,Indigo,116,132,83,115,121
Eastern,Knox,1633,1766,1628,1596,1730
Eastern,Latrobe,2304,2725,2492,2611,2616
Eastern,Manningham,707,783,714,708,719
Eastern,Mansfield,92,105,104,86,106
Eastern,Maroondah,1000,1194,1099,1020,1156
Eastern,Mitchell,750,942,928,980,1064
Eastern,Moira,316,368,496,496,467
Eastern,Monash,1250,1344,1387,1268,1407
Eastern,Murrindindi,148,128,150,153,182
Eastern,South Gippsland,378,354,431,395,460
Eastern,Strathbogie,91,119,134,147,163
Eastern,Towong,34,60,78,68,64
Eastern,Wangaratta,425,462,494,480,462
Eastern,Wellington,802,927,804,823,1274
Eastern,Whitehorse,1028,1073,1051,1077,1198
Eastern,Wodonga,867,842,778,744,868
Eastern,Yarra Ranges,1376,1632,1499,1585,1598
Eastern,Total,17959,20156,19156,19678,21694
Southern Metro,Bayside,608,615,679,702,689
Southern Metro,Cardinia,1319,1434,1250,1071,1312
Southern Metro,Casey,3783,4387,4733,4378,4668
Southern Metro,Frankston,2498,2707,2718,2343,2389
Southern Metro,Glen Eira,845,894,1007,924,864
Southern Metro,Greater Dandenong,2115,2227,2525,2436,2391
Southern Metro,Kingston,1350,1496,1522,1446,1581
Southern Metro,Mornington Peninsula,1945,2060,1921,1867,1890
Southern Metro,Port Phillip,965,1105,1138,1121,1266
Southern Metro,Stonnington,659,654,718,755,832
Southern Metro,Total,16087,17579,18211,17043,17882
Western,Ararat,237,246,272,246,263
Western,Ballarat,1865,1847,1934,1913,1781
Western,Buloke,51,56,64,42,57
Western,Campaspe,579,695,565,573,708
Western,Central Goldfields,288,303,330,342,405
Western,Colac-Otway,278,334,334,294,391
Western,Corangamite,131,175,221,176,157
Western,Gannawarra,146,213,225,176,270
Western,Glenelg,305,302,407,278,315
Western,Golden Plains,120,138,147,120,155
Western,Greater Bendigo,1663,1772,1611,1465,1915
Western,Greater Geelong,3085,3205,3319,3229,3539
Western,Hepburn,139,187,188,177,188
Western,Hindmarsh,57,102,108,73,88
Western,Horsham,535,569,494,507,459
Western,Loddon,72,100,91,90,119
Western,Macedon Ranges,390,433,410,391,455
Western,Mildura,1578,1653,1725,1690,1801
Western,Moorabool,384,475,475,488,454
Western,Mount Alexander,185,200,224,159,223
Western,Moyne,114,115,102,101,95
Western,Northern Grampians,184,245,205,202,230
Western,Pyrenees,47,86,105,88,86
Western,Queenscliffe,3,6,21,9,4
Western,Southern Grampians,254,378,335,283,280
Western,Surf Coast,208,185,167,166,233
Western,Swan Hill,541,580,568,630,647
Western,Warrnambool,597,693,686,653,755
Western,West Wimmera,23,26,28,51,50
Western,Yarriambiack,97,128,100,96,95
